<svg width="24" height="24" viewBox="0 0 24 24" fill="none"
    xmlns="http://www.w3.org/2000/svg">
    <path d="M8.84991 20.4199L2.74316 14.2099L5.52611 11.3799L8.84991 14.7699L18.5656 4.87988L21.3486 7.70988L8.84991 20.4199Z" fill="#7E7E7E"/>
</svg>
